Análise textual com LDA (Latent Dirichlet Allocation)
…
modelo LDA com 15 tópicos

modelo_Ida <- LDA(dtm, k = 15, method = "Gibbs", control = list(seed = 1234))

### probabilidades dos tópicos
beta_topics <- tidy(modelo_Ida, matrix = "beta")
beta_topics

## # A tibble: 6,975 × 3
##    topic term        beta
##    <int> <chr>      <dbl>
##  1     1 abaixo 0.0000775
##  2     2 abaixo 0.0000675
##  3     3 abaixo 0.0000784
##  4     4 abaixo 0.0000756
##  5     5 abaixo 0.0000702
##  6     6 abaixo 0.000657 
##  7     7 abaixo 0.0000665
##  8     8 abaixo 0.0000740
##  9     9 abaixo 0.0000671
## 10    10 abaixo 0.0190   
## # ℹ 6,965 more rows

Os 10 principais termos por tópico:

beta_top_terms <- beta_topics %>%
  group_by(topic) %>%
  slice_max(beta, n = 10) %>%
  ungroup() %>%
  arrange(topic, -beta)
beta_top_terms

## # A tibble: 155 × 3
##    topic term          beta
##    <int> <chr>        <dbl>
##  1     1 sistema     0.0427
##  2     1 alta        0.0334
##  3     1 leia        0.0319
##  4     1 jogo        0.0303
##  5     1 com         0.0295
##  6     1 the         0.0288
##  7     1 além        0.0264
##  8     1 onde        0.0264
##  9     1 experiência 0.0249
## 10     1 imagem      0.0241
## # ℹ 145 more rows
…
As distribuições dos tópicos para cada documento:

documento_topico <- tidy(modelo_Ida, matrix = "gamma")
documento_topico

## # A tibble: 3,000 × 3
##    document topic  gamma
##    <chr>    <int>  <dbl>
##  1 1            1 0.0319
##  2 2            1 0.0523
##  3 3            1 0.0319
##  4 4            1 0.0678
##  5 5            1 0.0754
##  6 6            1 0.0290
##  7 7            1 0.0864
##  8 8            1 0.0287
##  9 9            1 0.0543
## 10 10           1 0.0519
## # ℹ 2,990 more rows
…
